<svg width="36" height="36" viewBox="0 0 36 36" fill="none" xmlns="http://www.w3.org/2000/svg">
<path d="M20.9027 35.7657C20.7527 35.7902 20.6022 35.8127 20.4512 35.8333C20.6022 35.8127 20.7527 35.7902 20.9027 35.7657Z" fill="black"/>
<path d="M21.2629 35.7042C21.1912 35.7174 21.1195 35.7295 21.0479 35.7419C21.1195 35.7295 21.1912 35.7174 21.2629 35.7042Z" fill="black"/>
<path d="M20.0488 35.8833C19.8733 35.9031 19.6967 35.9207 19.5195 35.9355C19.6967 35.9207 19.8733 35.9031 20.0488 35.8833Z" fill="black"/>
<path d="M20.3944 35.8409C20.3101 35.8522 20.2252 35.8626 20.1406 35.8725C20.2252 35.8626 20.3101 35.8522 20.3944 35.8409Z" fill="black"/>
<path d="M21.7526 35.6069C21.6894 35.6204 21.6259 35.6339 21.5625 35.6468C21.6259 35.6339 21.6894 35.6204 21.7526 35.6069Z" fill="black"/>
<path d="M22.9687 35.3048C22.9176 35.3194 22.8665 35.3331 22.8154 35.3474C22.8665 35.3331 22.9176 35.3194 22.9687 35.3048Z" fill="black"/>
<path d="M22.6006 35.4054C22.5451 35.42 22.4893 35.4348 22.4336 35.4488C22.4893 35.4348 22.5451 35.4202 22.6006 35.4054Z" fill="black"/>
<path d="M22.1198 35.5256C22.061 35.5394 22.0017 35.5523 21.9424 35.5655C22.0017 35.5523 22.061 35.5394 22.1198 35.5256Z" fill="black"/>
<path d="M19.5131 35.936C19.4183 35.944 19.3235 35.9511 19.2285 35.9575C19.3235 35.9511 19.4183 35.944 19.5131 35.936Z" fill="black"/>
<path d="M36 18C36 8.06039 27.9396 0 18 0C8.06039 0 0 8.06039 0 18C0 27.9396 8.06039 36 18 36C18.1057 36 18.2109 35.9978 18.3164 35.9959V21.9836H14.4492V17.4768H18.3164V14.1603C18.3164 10.314 20.6645 8.22052 24.0955 8.22052C25.7385 8.22052 27.1508 8.34302 27.5625 8.39767V12.4176H25.1966C23.33 12.4176 22.9686 13.3047 22.9686 14.6063V17.4768H27.4318L26.85 21.9836H22.9686V35.3046C30.4923 33.1477 36 26.2161 36 18Z" fill="#EAD9A9"/>
<path d="M19.1891 35.9599C19.0018 35.972 18.8137 35.9816 18.625 35.9879C18.8137 35.9816 19.0018 35.972 19.1891 35.9599Z" fill="black"/>
<path d="M18.6162 35.9885C18.5168 35.9918 18.4171 35.9942 18.3174 35.9959C18.4171 35.9942 18.5168 35.9918 18.6162 35.9885Z" fill="black"/>
</svg>
